1,Mrs.,"$1,935.59 ",n,n,Lorem ipsum dolor
2,Mr.,"$5,058.33 ",y,n,Lorem ipsum
3,Mrs.,"$4,181.33 ",n,n,"Lorem ipsum dolor sit amet,"
4,Mr.,"$9,790.62 ",y,y,Lorem
5,Mr.,"$2,661.34 ",y,y,Lorem ipsum dolor sit
6,Mr.,"$7,658.60 ",n,y,Lorem ipsum dolor
7,Mr.,"$7,946.21 ",y,n,Lorem
8,Mr.,"$2,110.50 ",n,y,Lorem ipsum dolor
9,Ms.,"$2,898.88 ",n,y,Lorem ipsum dolor sit
10,Mrs.,"$9,155.17 ",y,y,Lorem ipsum dolor sit
,,,,,
,,,,,
,,,,,
,,,,,
,,,,,
,,,,,
,,,,,
,,,,,
,,,,,
,,,,,
,,,,,
,,,,,
,,,,,
,,,,,
,,,,,
,,,,,
,,,,,
,,,,,
,,,,,
,,,,,
,,,,,
,,,,,
,,,,,
,,,,,
,,,,,
,,,,,
,,,,,
,,,,,
,,,,,
,,,,,
,,,,,
,,,,,
,,,,,
,,,,,
,,,,,
,,,,,
,,,,,
,,,,,
,,,,,
,,,,,
,,,,,
,,,,,
,,,,,
,,,,,
,,,,,
,,,,,
,,,,,
,,,,,
,,,,,
,,,,,
,,,,,
,,,,,
,,,,,
,,,,,
,,,,,
,,,,,
,,,,,
,,,,,
,,,,,
,,,,,
,,,,,
,,,,,
,,,,,
,,,,,
,,,,,
,,,,,
,,,,,
,,,,,
,,,,,
,,,,,
,,,,,
,,,,,
,,,,,
,,,,,
,,,,,
,,,,,
,,,,,
,,,,,
,,,,,
,,,,,
,,,,,
,,,,,
,,,,,
,,,,,
,,,,,
,,,,,
,,,,,
,,,,,
,,,,,
,,,,,