per_id|emp_title|emp_salary|emp_is_fac|emp_is_stf|emp_notes
1|Mrs.|$8767.07|y|n|Lorem ipsum dolor sit
2|Ms.|$8135.46|n|n|Lorem ipsum
3|Dr.|$5463.27|y|y|Lorem
4|Ms.|$4206.38|y|n|Lorem ipsum dolor
5|Mrs.|$2342.92|n|y|Lorem ipsum dolor
6|Ms.|$1661.17|y|n|Lorem
7|Mr.|$1398.06|y|y|Lorem ipsum dolor sit
8|Mrs.|$5842.48|y|y|Lorem ipsum dolor sit
9|Ms.|$1405.62|n|n|Lorem ipsum dolor sit amet,
10|Mr.|$8443.75|y|n|Lorem ipsum dolor sit
11|Dr.|$9101.24|y|n|Lorem ipsum dolor
12|Ms.|$6800.16|y|n|Lorem ipsum dolor sit amet,
13|Ms.|$9123.33|y|n|Lorem
14|Mrs.|$2819.85|n|y|Lorem ipsum dolor
15|Ms.|$4825.08|y|n|Lorem ipsum dolor sit
16|Ms.|$4620.23|y|n|Lorem ipsum
17|Mrs.|$6600.37|n|n|Lorem
18|Dr.|$2857.82|n|n|Lorem ipsum
19|Mrs.|$8949.40|y|y|Lorem ipsum dolor
20|Dr.|$2577.08|y|n|Lorem
21|Ms.|$5391.20|n|y|Lorem ipsum dolor sit
22|Mrs.|$4511.55|y|n|Lorem
23|Mrs.|$9318.16|n|n|Lorem ipsum
24|Mrs.|$3414.22|y|y|Lorem
25|Dr.|$5563.75|n|n|Lorem ipsum dolor sit amet,
26|Mrs.|$2867.42|n|y|Lorem ipsum dolor
27|Mrs.|$4655.69|y|y|Lorem
28|Mr.|$6835.71|n|n|Lorem
29|Ms.|$5245.67|y|n|Lorem
30|Mr.|$5138.09|n|n|Lorem ipsum dolor sit
31|Dr.|$5862.01|n|y|Lorem ipsum
32|Mrs.|$1449.11|n|y|Lorem
33|Mr.|$9659.47|n|y|Lorem ipsum
34|Dr.|$7155.02|n|n|Lorem ipsum dolor sit amet,
35|Mrs.|$7978.04|n|n|Lorem ipsum dolor
36|Ms.|$9955.59|y|y|Lorem ipsum dolor
37|Mr.|$7860.22|y|n|Lorem ipsum dolor sit amet,
38|Dr.|$8604.25|n|y|Lorem ipsum dolor
39|Dr.|$8530.23|n|y|Lorem ipsum dolor
40|Mrs.|$3176.55|n|n|Lorem ipsum
41|Mrs.|$3715.44|n|n|Lorem ipsum dolor sit
42|Mrs.|$5209.45|y|n|Lorem ipsum dolor
43|Mrs.|$6411.77|n|y|Lorem ipsum dolor sit
44|Dr.|$9072.91|y|n|Lorem ipsum dolor sit amet,
45|Mrs.|$2532.66|n|y|Lorem ipsum dolor sit amet,
46|Ms.|$1198.41|y|y|Lorem ipsum dolor sit
47|Mrs.|$9000.91|n|y|Lorem ipsum dolor
48|Ms.|$2015.72|y|n|Lorem ipsum dolor
49|Dr.|$3201.86|y|n|Lorem ipsum dolor
50|Dr.|$2029.19|n|n|Lorem ipsum dolor
51|Dr.|$1547.65|y|y|Lorem ipsum dolor
52|Mr.|$9587.53|n|n|Lorem
53|Ms.|$2067.93|n|y|Lorem ipsum dolor sit
54|Mrs.|$4510.38|y|n|Lorem ipsum
55|Dr.|$7878.02|n|y|Lorem ipsum dolor sit
56|Dr.|$2291.84|n|n|Lorem ipsum dolor sit amet,
57|Ms.|$6701.55|y|y|Lorem ipsum dolor sit
58|Ms.|$7380.91|n|n|Lorem ipsum
59|Mrs.|$4663.38|n|y|Lorem ipsum dolor sit amet,
60|Mrs.|$8594.21|n|n|Lorem ipsum dolor
61|Mrs.|$8046.97|y|y|Lorem ipsum dolor
62|Mr.|$8890.12|y|y|Lorem ipsum dolor
63|Dr.|$2423.47|n|y|Lorem ipsum
64|Mrs.|$4238.00|y|y|Lorem ipsum
65|Dr.|$1018.64|y|y|Lorem ipsum dolor sit
66|Ms.|$3810.16|n|n|Lorem ipsum
67|Mrs.|$7225.18|n|n|Lorem ipsum dolor sit
68|Mr.|$2799.30|n|y|Lorem ipsum dolor
69|Dr.|$1724.47|y|y|Lorem ipsum dolor sit amet,
70|Mr.|$4419.65|y|n|Lorem ipsum dolor
71|Ms.|$9804.60|y|n|Lorem
72|Mr.|$8677.23|n|n|Lorem ipsum dolor sit
73|Dr.|$8375.49|y|y|Lorem ipsum dolor
74|Mrs.|$1746.54|n|n|Lorem ipsum dolor sit
75|Mr.|$9171.99|n|y|Lorem ipsum dolor
76|Dr.|$4340.42|y|n|Lorem
77|Ms.|$8145.78|n|n|Lorem
78|Mr.|$1864.55|n|y|Lorem ipsum dolor
79|Ms.|$8064.74|n|n|Lorem ipsum dolor sit amet,
80|Mrs.|$7494.82|y|y|Lorem ipsum dolor
81|Ms.|$4797.44|y|n|Lorem ipsum dolor sit
82|Dr.|$1193.89|n|y|Lorem ipsum dolor sit amet,
83|Mrs.|$1693.00|y|n|Lorem
84|Mr.|$3492.77|n|n|Lorem ipsum dolor sit amet,
85|Dr.|$4899.76|y|n|Lorem
86|Dr.|$3232.45|y|n|Lorem ipsum dolor sit amet,
87|Dr.|$9760.55|n|n|Lorem ipsum dolor
88|Mrs.|$1912.53|n|y|Lorem ipsum dolor
89|Ms.|$2277.79|y|n|Lorem ipsum dolor sit amet,
90|Dr.|$3558.69|y|n|Lorem ipsum dolor
91|Mr.|$8253.47|y|y|Lorem ipsum dolor sit
92|Mrs.|$1347.88|n|n|Lorem ipsum dolor sit amet,
93|Dr.|$2601.04|n|n|Lorem ipsum dolor sit
94|Mr.|$1853.50|n|n|Lorem ipsum dolor
95|Dr.|$9096.88|y|n|Lorem ipsum dolor sit amet,
96|Mr.|$3947.06|y|y|Lorem ipsum
97|Dr.|$6506.68|y|n|Lorem ipsum
98|Dr.|$7776.87|n|n|Lorem ipsum dolor
99|Ms.|$1216.97|y|y|Lorem ipsum dolor
100|Mr.|$2772.38|y|n|Lorem ipsum dolor